{
   "entries": [
      {
        "completed_at": "2023-04-13T09:20:00.000000Z",
        "dockings": [],
        "from_port_id": "609396b8-405d-4a3f-8bd6-edefe31abe47",
        "id": "234c57f3-12fe-405c-99ac-5bfea72832aa",
        "inserted_at": "2023-04-04T20:00:27.592502Z",
        "number": "65754",
        "started_at": "2023-04-13T05:00:00.000000Z",
        "statistics": {
          "distance": null,
          "duration": 15600,
          "fuel_consumption": [],
          "running_hours_on_all_engines": null,
          "running_hours_on_at_least_one_engine": null,
          "total_emissions": null,
          "total_energy_consumption": null,
          "total_fuel_consumption": null,
          "twin_engines_ratio": null,
          "voyage_id": "234c57f3-12fe-405c-99ac-5bfea72832aa"
        },
        "statistics_generated_at": "2023-04-14T09:22:21.976556Z",
        "to_port_id": "90d8854d-fde7-4540-9640-bf91e3a5d56d",
        "updated_at": "2023-04-14T09:22:21.979704Z",
        "vessel_id": "b6ccd14d-c8e6-4ddf-a5da-bbb3689cc4cf"
      },
      {
        "completed_at": "2023-04-11T02:30:00.000000Z",
        "dockings": [],
        "from_port_id": "b3d5874a-7c9f-4b32-b583-9e6c4c6b7f2b",
        "id": "812d1e6e-c0c6-4d63-a9e5-8cf79eff883d",
        "inserted_at": "2023-04-04T20:00:27.593380Z",
        "number": "65765",
        "started_at": "2023-04-10T23:44:00.000000Z",
        "statistics": {
          "distance": 75516.81098917083,
          "duration": 9960,
          "fuel_consumption": [
            {
              "consumer_name": "DG 2",
              "fuel_amount": {
                "amount": 74.3740000406901,
                "unit": "l",
                "fuel_name": "MDO"
              },
              "source": "flow_meters"
            },
            {
              "consumer_name": "DG 2",
              "fuel_amount": {
                "amount": 0.0,
                "unit": "GJ",
                "fuel_name": "LNG"
              },
              "source": "flow_meters"
            },
            {
              "consumer_name": "DG 1",
              "fuel_amount": {
                "amount": 0.0,
                "unit": "l",
                "fuel_name": "MDO"
              },
              "source": "flow_meters"
            },
            {
              "consumer_name": "DG 1",
              "fuel_amount": {
                "amount": 191.5749997615814,
                "unit": "GJ",
                "fuel_name": "LNG"
              },
              "source": "flow_meters"
            }
          ],
          "running_hours_on_all_engines": null,
          "running_hours_on_at_least_one_engine": null,
          "total_emissions": 12.797601568706426,
          "total_energy_consumption": {
            "source": "flow_meters",
            "consumer_name": "all",
            "amount": 194.44360494315083
          },
          "total_fuel_consumption": {
            "consumer_name": "all",
            "fuel_amount": {
              "amount": 194.44360494315083,
              "unit": "GJ",
              "fuel_name": null
            },
            "source": "flow_meters"
          },
          "twin_engines_ratio": 0.0,
          "voyage_id": "812d1e6e-c0c6-4d63-a9e5-8cf79eff883d"
        },
        "statistics_generated_at": "2023-04-12T02:32:02.993158Z",
        "to_port_id": "90d8854d-fde7-4540-9640-bf91e3a5d56d",
        "updated_at": "2023-04-12T02:32:02.998301Z",
        "vessel_id": "51a69e8f-c5e9-42b3-83d0-28af40353989"
      },
      {
        "completed_at": "2023-04-15T10:21:00.000000Z",
        "dockings": [],
        "from_port_id": "b3d5874a-7c9f-4b32-b583-9e6c4c6b7f2b",
        "id": "595c73bd-308c-4932-8a01-0f9f576c4623",
        "inserted_at": "2023-04-04T20:00:27.594169Z",
        "number": "65779",
        "started_at": "2023-04-15T07:24:00.000000Z",
        "statistics": {
          "distance": 73097.28595062059,
          "duration": 10500,
          "fuel_consumption": [
            {
              "consumer_name": "DG 2",
              "fuel_amount": {
                "amount": 0.0,
                "unit": "l",
                "fuel_name": "MDO"
              },
              "source": "flow_meters"
            },
            {
              "consumer_name": "DG 2",
              "fuel_amount": {
                "amount": 0.0,
                "unit": "GJ",
                "fuel_name": "LNG"
              },
              "source": "flow_meters"
            },
            {
              "consumer_name": "DG 1",
              "fuel_amount": {
                "amount": 3814.9969889322915,
                "unit": "l",
                "fuel_name": "MDO"
              },
              "source": "flow_meters"
            },
            {
              "consumer_name": "DG 1",
              "fuel_amount": {
                "amount": 198.12166748046874,
                "unit": "GJ",
                "fuel_name": "LNG"
              },
              "source": "flow_meters"
            }
          ],
          "running_hours_on_all_engines": null,
          "running_hours_on_at_least_one_engine": null,
          "total_emissions": 25.097881754951725,
          "total_energy_consumption": {
            "source": "flow_meters",
            "consumer_name": "all",
            "amount": 345.26610134358725
          },
          "total_fuel_consumption": {
            "consumer_name": "all",
            "fuel_amount": {
              "amount": 345.26610134358725,
              "unit": "GJ",
              "fuel_name": null
            },
            "source": "flow_meters"
          },
          "twin_engines_ratio": 0.0,
          "voyage_id": "595c73bd-308c-4932-8a01-0f9f576c4623"
        },
        "statistics_generated_at": "2023-04-16T10:27:37.733876Z",
        "to_port_id": "90d8854d-fde7-4540-9640-bf91e3a5d56d",
        "updated_at": "2023-04-27T18:55:59.086487Z",
        "vessel_id": "b9d3340c-bb9e-428c-85d2-9869c934c5a8"
      }
  ],
  "page_number": 1,
  "page_size": 25,
  "total_entries": 6314,
  "total_pages": 253
}