{
  "entries": [
    {
      "comments": [],
      "ended_at": "2023-05-27T08:28:22Z",
      "id": "f856b792-91d0-469e-8887-bf9903cc1e65",
      "leg": {
        "from": {
          "id": "fbd18c03-57f7-4e09-838f-09b5039b7879",
          "name": "Swartz Bay Approach through Moresby Passage",
          "type": "waypoint"
        },
        "to": {
          "id": "821fa9f8-9bd3-4c1b-90bc-0c6a306e884f",
          "name": "Berth 1",
          "type": "port_dock"
        }
      },
      "properties": {
        "engine": "DG 1"
      },
      "started_at": "2023-05-27T08:26:04Z",
      "statistics": {
        "duration_min": 2,
        "fuel_oil_consumption": {
          "consumer_name": "all",
          "fuel_amount": {
            "amount": 5.0739997863769535,
            "fuel_name": "MDO",
            "unit": "l"
          },
          "source": "flow_meters"
        },
        "fuel_oil_emissions": 0.016102539252458803
      },
      "target": {
        "id": "ba1b1275-526d-4a91-aa2f-e3f1a3db95d0",
        "parameters": {
          "vessel_ids": [
            "b9d3340c-bb9e-428c-85d2-9869c934c5a8",
            "51a69e8f-c5e9-42b3-83d0-28af40353989",
            "a0216ccf-b6ed-48c4-8d08-2b0f3bf1fa79",
            "69840bb3-66d7-462d-b896-a6ccc7e4814a"
          ]
        },
        "type": "dual_fuel_engine_gas_mode"
      },
      "tenant_id": "00e3b62b-ca7a-4fef-a9c8-7a915b758d85",
      "vessel_id": "51a69e8f-c5e9-42b3-83d0-28af40353989",
      "voyage": {
        "number": "66814"
      }
    }
  ],
  "page_number": 1,
  "page_size": 25,
  "total_entries": 28,
  "total_pages": 2
}