{
  "entries": [
    {
      "comments": [],
      "ended_at": "2023-05-27T07:00:00Z",
      "id": "a60cd62e-f8f9-4326-856f-d1f4d5168c45",
      "leg": {
        "from": {
          "id": "fbd18c03-57f7-4e09-838f-09b5039b7879",
          "name": "Swartz Bay Approach through Moresby Passage",
          "type": "waypoint"
        },
        "to": {
          "id": "821fa9f8-9bd3-4c1b-90bc-0c6a306e884f",
          "name": "Berth 1",
          "type": "port_dock"
        }
      },
      "properties": {
        "reasons": [
          {
            "reason": {
              "actual_value": 30.066472857243856,
              "expected_value": 20.0,
              "predicate": "less_than"
            },
            "type": "fuel_oil"
          }
        ]
      },
      "started_at": "2023-05-26T07:00:00Z",
      "statistics": {
        "duration_min": 1440
      },
      "target": {
        "id": "74c3bc71-0044-4640-bdc5-8f8112882c28",
        "parameters": {
          "criteria": [
            {
              "predicate": "less_than",
              "type": "fuel_oil",
              "value": 20.0
            }
          ],
          "time_window": "daily",
          "timezone": "America/Vancouver",
          "vessel_ids": [
            "b9d3340c-bb9e-428c-85d2-9869c934c5a8",
            "51a69e8f-c5e9-42b3-83d0-28af40353989",
            "69840bb3-66d7-462d-b896-a6ccc7e4814a",
            "a0216ccf-b6ed-48c4-8d08-2b0f3bf1fa79"
          ]
        },
        "type": "energy_consumption"
      },
      "tenant_id": "00e3b62b-ca7a-4fef-a9c8-7a915b758d85",
      "vessel_id": "51a69e8f-c5e9-42b3-83d0-28af40353989",
      "voyage": {
        "number": "66814"
      }
    }
  ],
  "page_number": 1,
  "page_size": 25,
  "total_entries": 47,
  "total_pages": 2
}